{
  "bridge": {
    "name": "Purple Air",
    "username": "{{BRIDGE_USERNAME}}",
    "port": 51826,
    "pin": "{{BRIDGE_PIN}}",
    "setupID": "{{BRIDGE_SETUPID}}"
  },
  "description": "",
  "accessories": [
    {
      "accessory": "PurpleAir",
      "name": "Purple Air Quality",
      "purpleID": "{{PURPLEAIR_ID}}",
      "updateFreq": {{UPDATE_FREQ}},
      "adjust": "{{ADJUST}}",
      "statsKey": "{{STATSKEY}}",
      "includePM10": {{INCLUDEPM10}}
     }
  ],
  "platforms": [
  ]
}
